{
  "version": "1.0.0-*",

  "dependencies": {
    "GameDAL": "1.0.0-*",
    "AutoMapper": "5.2.0",
    "NETStandard.Library": "1.6.0",
    "PlatformCore.Application.Common": "1.0.0-*",
    "PlatformCore.DAL.Common": "1.0.0-*"
  },

  "frameworks": {
    "net46": {
    },
    "netcoreapp1.0": {
      "dependencies": {
        "Microsoft.NETCore.App": {
          "type": "platform",
          "version": "1.0.0-*"
        }
      }
    }
  }
}
